{
  "version": "1.0",
  "defaultProvider": "cdnjs",
  "libraries": [
    {
      "provider": "cdnjs",
      "library": "jquery@3.4.1",
      "destination": "lib/jquery/"
    },
    {
      "provider": "cdnjs",
      "library": "twitter-bootstrap@3.4.1",
      "destination": "lib/twitter-bootstrap/"
    }
  ,
{
  "provider": "cdnjs",
  "library": "admin-lte@2.4.18",
  "destination": "lib/admin-lte/"
}
,
{
  "provider": "cdnjs",
  "library": "ionicons@4.5.6",
  "destination": "lib/ionicons/"
}
]
}